<?xml version="1.0" encoding="UTF-8" standalone="no"?>
<!-- Created with Inkscape (http://www.inkscape.org/) -->

<svg
   xmlns:dc="http://purl.org/dc/elements/1.1/"
   xmlns:cc="http://creativecommons.org/ns#"
   xmlns:rdf="http://www.w3.org/1999/02/22-rdf-syntax-ns#"
   xmlns:svg="http://www.w3.org/2000/svg"
   xmlns="http://www.w3.org/2000/svg"
   xmlns:sodipodi="http://sodipodi.sourceforge.net/DTD/sodipodi-0.dtd"
   xmlns:inkscape="http://www.inkscape.org/namespaces/inkscape"
   width="64"
   height="64"
   viewBox="0 0 16.933333 16.933334"
   version="1.1"
   id="svg8"
   inkscape:version="0.92.3 (2405546, 2018-03-11)"
   sodipodi:docname="settings.svg">
  <defs
     id="defs2" />
  <sodipodi:namedview
     id="base"
     pagecolor="#ffffff"
     bordercolor="#666666"
     borderopacity="1.0"
     inkscape:pageopacity="0.0"
     inkscape:pageshadow="2"
     inkscape:zoom="11.2"
     inkscape:cx="7.468756"
     inkscape:cy="26.891198"
     inkscape:document-units="mm"
     inkscape:current-layer="layer1"
     showgrid="true"
     units="px"
     inkscape:window-width="1871"
     inkscape:window-height="1056"
     inkscape:window-x="49"
     inkscape:window-y="24"
     inkscape:window-maximized="1"
     inkscape:pagecheckerboard="true">
    <inkscape:grid
       type="xygrid"
       id="grid4518"
       empspacing="4" />
  </sodipodi:namedview>
  <metadata
     id="metadata5">
    <rdf:RDF>
      <cc:Work
         rdf:about="">
        <dc:format>image/svg+xml</dc:format>
        <dc:type
           rdf:resource="http://purl.org/dc/dcmitype/StillImage" />
        <dc:title />
      </cc:Work>
    </rdf:RDF>
  </metadata>
  <g
     inkscape:label="Layer 1"
     inkscape:groupmode="layer"
     id="layer1"
     transform="translate(0,-280.06665)">
    <path
       style="fill:none;fill-opacity:1;fill-rule:evenodd;stroke:#ffffff;stroke-width:12;stroke-linecap:round;stroke-linejoin:round;stroke-miterlimit:4;stroke-dasharray:none;stroke-opacity:1;paint-order:normal"
       d="M 32 12 A 19.999999 19.999999 0 0 0 12 32 A 19.999999 19.999999 0 0 0 32 52 A 19.999999 19.999999 0 0 0 52 32 A 19.999999 19.999999 0 0 0 32 12 z M 32 20 A 12 12 0 0 1 44 32 A 12 12 0 0 1 32 44 A 12 12 0 0 1 20 32 A 12 12 0 0 1 32 20 z "
       transform="matrix(0.26458333,0,0,0.26458333,0,280.06665)"
       id="circle832" />
    <path
       style="fill:#b7b7b7;fill-opacity:1;fill-rule:evenodd;stroke:#ffffff;stroke-width:7.99999952;stroke-linecap:square;stroke-linejoin:round;stroke-miterlimit:4;stroke-dasharray:none;stroke-opacity:1;paint-order:stroke fill markers"
       d="M 6 28 C 4.8920001 28 4 28.891994 4 30 L 4 34 C 4 35.108006 4.8920001 36 6 36 L 20.701172 36 A 12 12 0 0 1 20 32 A 12 12 0 0 1 20.701172 28 L 6 28 z M 43.298828 28 A 12 12 0 0 1 44 32 A 12 12 0 0 1 43.298828 36 L 58 36 C 59.108003 36 60 35.108006 60 34 L 60 30 C 60 28.891994 59.108003 28 58 28 L 43.298828 28 z "
       transform="matrix(0.26458333,0,0,0.26458333,0,280.06665)"
       id="rect860" />
    <path
       style="fill:#b7b7b7;fill-opacity:1;fill-rule:evenodd;stroke:#ffffff;stroke-width:7.99999952;stroke-linecap:square;stroke-linejoin:round;stroke-miterlimit:4;stroke-dasharray:none;stroke-opacity:1;paint-order:stroke fill markers"
       d="M 15.029297 10.199219 C 14.518062 10.199225 14.006974 10.39537 13.615234 10.787109 L 10.787109 13.615234 C 10.003631 14.398713 10.003631 15.659881 10.787109 16.443359 L 21.181641 26.837891 A 12 12 0 0 1 26.835938 21.179688 L 16.443359 10.787109 C 16.05162 10.39537 15.540532 10.199212 15.029297 10.199219 z M 42.818359 37.162109 A 12 12 0 0 1 37.164062 42.820312 L 47.556641 53.212891 C 48.340093 53.996343 49.601287 53.996369 50.384766 53.212891 L 53.212891 50.384766 C 53.996369 49.601287 53.996343 48.340093 53.212891 47.556641 L 42.818359 37.162109 z "
       transform="matrix(0.26458333,0,0,0.26458333,0,280.06665)"
       id="rect862" />
    <path
       style="fill:#b7b7b7;fill-opacity:1;fill-rule:evenodd;stroke:#ffffff;stroke-width:7.99999952;stroke-linecap:square;stroke-linejoin:round;stroke-miterlimit:4;stroke-dasharray:none;stroke-opacity:1;paint-order:stroke fill markers"
       d="M 30 4 C 28.892 4 28 4.8919937 28 6 L 28 20.701172 A 12 12 0 0 1 32 20 A 12 12 0 0 1 36 20.701172 L 36 6 C 36 4.8919937 35.108 4 34 4 L 30 4 z M 28 43.298828 L 28 58 C 28 59.108006 28.892 60 30 60 L 34 60 C 35.108 60 36 59.108006 36 58 L 36 43.298828 A 12 12 0 0 1 32 44 A 12 12 0 0 1 28 43.298828 z "
       transform="matrix(0.26458333,0,0,0.26458333,0,280.06665)"
       id="rect4567" />
    <path
       style="fill:#b7b7b7;fill-opacity:1;fill-rule:evenodd;stroke:#ffffff;stroke-width:7.99999952;stroke-linecap:square;stroke-linejoin:round;stroke-miterlimit:4;stroke-dasharray:none;stroke-opacity:1;paint-order:stroke fill markers"
       d="M 48.970703 10.199219 C 48.459465 10.199219 47.948378 10.395372 47.556641 10.787109 L 37.162109 21.181641 A 12 12 0 0 1 42.820312 26.835938 L 53.212891 16.443359 C 53.996365 15.659885 53.996365 14.398709 53.212891 13.615234 L 50.384766 10.787109 C 49.993028 10.395372 49.481941 10.199219 48.970703 10.199219 z M 21.179688 37.164062 L 10.787109 47.556641 C 10.003635 48.340115 10.003635 49.601291 10.787109 50.384766 L 13.615234 53.212891 C 14.398709 53.996365 15.659885 53.996365 16.443359 53.212891 L 26.837891 42.818359 A 12 12 0 0 1 21.179688 37.164062 z "
       transform="matrix(0.26458333,0,0,0.26458333,0,280.06665)"
       id="rect4569" />
    <path
       style="fill:#b7b7b7;fill-opacity:1;fill-rule:evenodd;stroke:#b7b7b7;stroke-width:3.99999976;stroke-linecap:round;stroke-linejoin:round;stroke-miterlimit:4;stroke-dasharray:none;stroke-opacity:1;paint-order:normal"
       d="M 32 12 A 19.999999 19.999999 0 0 0 12 32 A 19.999999 19.999999 0 0 0 32 52 A 19.999999 19.999999 0 0 0 52 32 A 19.999999 19.999999 0 0 0 32 12 z M 32 20 A 12 12 0 0 1 44 32 A 12 12 0 0 1 32 44 A 12 12 0 0 1 20 32 A 12 12 0 0 1 32 20 z "
       transform="matrix(0.26458333,0,0,0.26458333,0,280.06665)"
       id="path830" />
    <path
       style="fill:#b7b7b7;fill-opacity:1;fill-rule:evenodd;stroke:none;stroke-width:7.99999952;stroke-linecap:square;stroke-linejoin:round;stroke-miterlimit:4;stroke-dasharray:none;stroke-opacity:1;paint-order:stroke fill markers"
       d="M 6 28 C 4.8920001 28 4 28.891994 4 30 L 4 34 C 4 35.108006 4.8920001 36 6 36 L 20.701172 36 A 12 12 0 0 1 20 32 A 12 12 0 0 1 20.701172 28 L 6 28 z M 43.298828 28 A 12 12 0 0 1 44 32 A 12 12 0 0 1 43.298828 36 L 58 36 C 59.108003 36 60 35.108006 60 34 L 60 30 C 60 28.891994 59.108003 28 58 28 L 43.298828 28 z "
       transform="matrix(0.26458333,0,0,0.26458333,0,280.06665)"
       id="path1988" />
    <path
       style="fill:#b7b7b7;fill-opacity:1;fill-rule:evenodd;stroke:none;stroke-width:7.99999952;stroke-linecap:square;stroke-linejoin:round;stroke-miterlimit:4;stroke-dasharray:none;stroke-opacity:1;paint-order:stroke fill markers"
       d="M 15.029297 10.199219 C 14.518062 10.199225 14.006974 10.39537 13.615234 10.787109 L 10.787109 13.615234 C 10.003631 14.398713 10.003631 15.659881 10.787109 16.443359 L 21.181641 26.837891 A 12 12 0 0 1 26.835938 21.179688 L 16.443359 10.787109 C 16.05162 10.39537 15.540532 10.199212 15.029297 10.199219 z M 42.818359 37.162109 A 12 12 0 0 1 37.164062 42.820312 L 47.556641 53.212891 C 48.340093 53.996343 49.601287 53.996369 50.384766 53.212891 L 53.212891 50.384766 C 53.996369 49.601287 53.996343 48.340093 53.212891 47.556641 L 42.818359 37.162109 z "
       id="path1990"
       transform="matrix(0.26458333,0,0,0.26458333,0,280.06665)" />
    <path
       style="fill:#b7b7b7;fill-opacity:1;fill-rule:evenodd;stroke:none;stroke-width:7.99999952;stroke-linecap:square;stroke-linejoin:round;stroke-miterlimit:4;stroke-dasharray:none;stroke-opacity:1;paint-order:stroke fill markers"
       d="M 30 4 C 28.892 4 28 4.8919937 28 6 L 28 20.701172 A 12 12 0 0 1 32 20 A 12 12 0 0 1 36 20.701172 L 36 6 C 36 4.8919937 35.108 4 34 4 L 30 4 z M 28 43.298828 L 28 58 C 28 59.108006 28.892 60 30 60 L 34 60 C 35.108 60 36 59.108006 36 58 L 36 43.298828 A 12 12 0 0 1 32 44 A 12 12 0 0 1 28 43.298828 z "
       transform="matrix(0.26458333,0,0,0.26458333,0,280.06665)"
       id="path1992" />
    <path
       style="fill:#b7b7b7;fill-opacity:1;fill-rule:evenodd;stroke:none;stroke-width:7.99999952;stroke-linecap:square;stroke-linejoin:round;stroke-miterlimit:4;stroke-dasharray:none;stroke-opacity:1;paint-order:stroke fill markers"
       d="M 48.970703 10.199219 C 48.459465 10.199219 47.948378 10.395372 47.556641 10.787109 L 37.162109 21.181641 A 12 12 0 0 1 42.820312 26.835938 L 53.212891 16.443359 C 53.996365 15.659885 53.996365 14.398709 53.212891 13.615234 L 50.384766 10.787109 C 49.993028 10.395372 49.481941 10.199219 48.970703 10.199219 z M 21.179688 37.164062 L 10.787109 47.556641 C 10.003635 48.340115 10.003635 49.601291 10.787109 50.384766 L 13.615234 53.212891 C 14.398709 53.996365 15.659885 53.996365 16.443359 53.212891 L 26.837891 42.818359 A 12 12 0 0 1 21.179688 37.164062 z "
       transform="matrix(0.26458333,0,0,0.26458333,0,280.06665)"
       id="rect1994" />
  </g>
</svg>
